…
Fortunately, restructuring your data into the right form is straightforward using the tidyr
package and the pivot_longer() function. In this example, I’m going to look at some
mocked-up survey data, with six questions stored in variables Q1 through Q6.
The original data frame looks like this:

print(survey_data)

## # A tibble: 300 x 7
##    group    Q1    Q2    Q3    Q4    Q5    Q6
##    <fct> <int> <int> <int> <int> <int> <int>
##  1 B         4     1     4     1     2     3
##  2 B         5     2     5     4     3     3
##  3 B         5     4     4     2     2     3
##  4 B         5     1     5     2     4     3
##  5 A         5     2     5     1     1     2
##  6 A         5     3     5     3     2     2
##  7 A         4     3     5     1     4     1
##  8 B         4     3     5     1     2     1
##  9 B         4     4     4     1     3     2
## 10 B         4     4     5     2     5     4
## # ... with 290 more rows

You can convert this into a
longer data frame where the question number is stored in one column and the
response is stored in a separate column:

longer_data <- survey_data %>%
  pivot_longer(Q1:Q6, names_to = "question", values_to = "response")
print(longer_data)

## # A tibble: 1,800 x 3
##    group question response
##    <fct> <chr>       <int>
##  1 B     Q1              4
##  2 B     Q2              1
##  3 B     Q3              4
##  4 B     Q4              1
##  5 B     Q5              2
##  6 B     Q6              3
##  7 B     Q1              5
##  8 B     Q2              2
##  9 B     Q3              5
## 10 B     Q4              4
## # ... with 1,790 more rows
…
